…
## TASK: Identify the outliers from q2
cutoff <-
  first_year %>%
  pull(gdpPercap) %>% 
  quantile(prob = .75)
outlier_data <-
  first_year %>% 
  filter(gdpPercap > cutoff)
outlier_countries <-
  outlier_data %>% 
  select(country)
outlier_countries
```

    ## # A tibble: 36 × 1
    ##    country       
    ##    <fct>         
    ##  1 Argentina     
    ##  2 Australia     
    ##  3 Austria       
    ##  4 Bahrain       
    ##  5 Belgium       
    ##  6 Canada        
    ##  7 Chile         
    ##  8 Cuba          
    ##  9 Czech Republic
    ## 10 Denmark       
    ## # ℹ 26 more rows
…
